…
    ## See spec(...) for full column specifications.

``` r
NYC_transit_data_modified
```

    ## # A tibble: 1,868 x 19
    ##    line  station_name station_latitude station_longitu… route1 route2
    ##    <chr> <chr>                   <dbl>            <dbl> <chr>  <chr> 
    ##  1 4 Av… 25th St                  40.7            -74.0 R      <NA>  
    ##  2 4 Av… 25th St                  40.7            -74.0 R      <NA>  
    ##  3 4 Av… 36th St                  40.7            -74.0 N      R     
    ##  4 4 Av… 36th St                  40.7            -74.0 N      R     
    ##  5 4 Av… 36th St                  40.7            -74.0 N      R     
    ##  6 4 Av… 45th St                  40.6            -74.0 R      <NA>  
    ##  7 4 Av… 45th St                  40.6            -74.0 R      <NA>  
    ##  8 4 Av… 45th St                  40.6            -74.0 R      <NA>  
    ##  9 4 Av… 45th St                  40.6            -74.0 R      <NA>  
    ## 10 4 Av… 53rd St                  40.6            -74.0 R      <NA>  
    ## # ... with 1,858 more rows, and 13 more variables: route3 <chr>,
    ## #   route4 <chr>, route5 <chr>, route6 <chr>, route7 <chr>, route8 <int>,
    ## #   route9 <int>, route10 <int>, route11 <int>, entry <chr>,
    ## #   vending <chr>, entrance_type <chr>, ada <lgl>
…
``` r
NYC_transit_data_modified %>% 
  gather(., key = "route_number", value = "route_name", 5:15) %>% 
  filter(., route_name == "A") %>% 
  distinct(., station_name, line) %>% 
  nrow() 
```

    ## [1] 60

``` r
NYC_transit_data_modified
```

    ## # A tibble: 1,868 x 19
    ##    line  station_name station_latitude station_longitu… route1 route2
    ##    <chr> <chr>                   <dbl>            <dbl> <chr>  <chr> 
    ##  1 4 Av… 25th St                  40.7            -74.0 R      <NA>  
    ##  2 4 Av… 25th St                  40.7            -74.0 R      <NA>  
    ##  3 4 Av… 36th St                  40.7            -74.0 N      R     
    ##  4 4 Av… 36th St                  40.7            -74.0 N      R     
    ##  5 4 Av… 36th St                  40.7            -74.0 N      R     
    ##  6 4 Av… 45th St                  40.6            -74.0 R      <NA>  
    ##  7 4 Av… 45th St                  40.6            -74.0 R      <NA>  
    ##  8 4 Av… 45th St                  40.6            -74.0 R      <NA>  
    ##  9 4 Av… 45th St                  40.6            -74.0 R      <NA>  
    ## 10 4 Av… 53rd St                  40.6            -74.0 R      <NA>  
    ## # ... with 1,858 more rows, and 13 more variables: route3 <chr>,
    ## #   route4 <chr>, route5 <chr>, route6 <chr>, route7 <chr>, route8 <int>,
    ## #   route9 <int>, route10 <int>, route11 <int>, entry <chr>,
    ## #   vending <chr>, entrance_type <chr>, ada <lgl>
…
-   There are 56 distinct stations serve the A train.Of the stations that serve the A train, there are 17 have ADA complaint.

Problem 2
=========

``` r
trashwheel_data = readxl::read_xlsx("./hw2_data/HealthyHarborWaterWheelTotals2018-7-28.xlsx", sheet = "Mr. Trash Wheel") %>% 
  janitor::clean_names() %>% 
  select(-x_1) %>% 
  filter(!is.na(dumpster)) %>% 
  mutate(sports_balls = as.integer(round(sports_balls)))
trashwheel_data
```

    ## # A tibble: 285 x 14
    ##    dumpster month  year date                weight_tons volume_cubic_ya…
    ##       <dbl> <chr> <dbl> <dttm>                    <dbl>            <dbl>
    ##  1        1 May    2014 2014-05-16 00:00:00        4.31               18
    ##  2        2 May    2014 2014-05-16 00:00:00        2.74               13
    ##  3        3 May    2014 2014-05-16 00:00:00        3.45               15
    ##  4        4 May    2014 2014-05-17 00:00:00        3.1                15
    ##  5        5 May    2014 2014-05-17 00:00:00        4.06               18
    ##  6        6 May    2014 2014-05-20 00:00:00        2.71               13
    ##  7        7 May    2014 2014-05-21 00:00:00        1.91                8
    ##  8        8 May    2014 2014-05-28 00:00:00        3.7                16
    ##  9        9 June   2014 2014-06-05 00:00:00        2.52               14
    ## 10       10 June   2014 2014-06-11 00:00:00        3.76               18
    ## # ... with 275 more rows, and 8 more variables: plastic_bottles <dbl>,
    ## #   polystyrene <dbl>, cigarette_butts <dbl>, glass_bottles <dbl>,
    ## #   grocery_bags <dbl>, chip_bags <dbl>, sports_balls <int>,
    ## #   homes_powered <dbl>
…
precipitation2017 = readxl::read_xlsx("./hw2_data/HealthyHarborWaterWheelTotals2018-7-28.xlsx", sheet = "2017 Precipitation", range = "A2:B14")%>% 
  janitor::clean_names() %>% 
  filter(!is.na(total)) %>% 
  mutate(year = "2017") %>% 
  select(year, everything()) 

precipitation_tidy = bind_rows(precipitation2016, precipitation2017) %>%   
  mutate(month = month.name[month]) 
precipitation_tidy
```

    ## # A tibble: 24 x 3
    ##    year  month     total
    ##    <chr> <chr>     <dbl>
    ##  1 2016  January    3.23
    ##  2 2016  February   5.32
    ##  3 2016  March      2.24
    ##  4 2016  April      1.78
    ##  5 2016  May        5.19
    ##  6 2016  June       3.2 
    ##  7 2016  July       6.09
    ##  8 2016  August     3.96
    ##  9 2016  September  4.53
    ## 10 2016  October    0.62
    ## # ... with 14 more rows
…
